SystemC/waveforms.vcd
$date
     Nov 24, 2016       22:50:39
$end

$version
 SystemC 2.3.1-Accellera --- Sep 25 2016 19:41:02
$end

$timescale
     1 ps
$end

$scope module SystemC $end
$var wire    1  aaaaa  clk       $end
$var wire    1  aaaab  rst       $end
$var wire    1  aaaac  ready       $end
$var wire    7  aaaad  addr [6:0]  $end
$var wire    1  aaaae  rw       $end
$var wire    1  aaaaf  enable       $end
$var wire    1  aaaag  i2c_clk       $end
$var wire    1  aaaah  i2c_scl_enable       $end
$var wire    1  aaaai  sda_out       $end
$var wire    8  aaaaj  counter [7:0]  $end
$var wire    1  aaaak  write_enable       $end
$var wire    8  aaaal  saved_data [7:0]  $end
$var wire    8  aaaam  data_from_slave [7:0]  $end
$var wire    8  aaaan  slave_data_in [7:0]  $end
$var wire    8  aaaao  slave_data_out [7:0]  $end
$var wire    1  aaaap  slave_start       $end
$var wire    1  aaaaq  slave_we       $end
$var wire    8  aaaar  slave_addr [7:0]  $end
$var wire    1  aaaas  slave_scl       $end
$var wire    1  aaaat  slave_sda       $end
$var wire    1  aaaau  scl       $end
$var wire    1  aaaav  sda       $end
$upscope $end
$enddefinitions  $end

$comment
All initial values are dumped below at time 0 sec = 0 timescale units.
$end

$dumpvars
1aaaaa
1aaaab
0aaaac
b0 aaaad
0aaaae
0aaaaf
1aaaag
0aaaah
xaaaai
b0 aaaaj
1aaaak
bXXXXXXXX aaaal
bXXXXXXXX aaaam
bXXXXXXXX aaaan
b10101010 aaaao
0aaaap
0aaaaq
bXXXXXXXX aaaar
1aaaas
1aaaat
1aaaau
1aaaav
$end

#1000
0aaaaa

#2000
1aaaaa

#3000
0aaaaa

#4000
1aaaaa

#5000
0aaaaa

#6000
1aaaaa

#7000
0aaaaa

#8000
1aaaaa

#9000
0aaaaa

#10000
1aaaaa

#11000
0aaaaa

#12000
1aaaaa

#13000
0aaaaa

#14000
1aaaaa

#15000
0aaaaa

#16000
1aaaaa

#17000
0aaaaa

#18000
1aaaaa

#19000
0aaaaa

#20000
1aaaaa

#21000
0aaaaa

#22000
1aaaaa

#23000
0aaaaa

#24000
1aaaaa

#25000
0aaaaa

#26000
1aaaaa

#27000
0aaaaa

#28000
1aaaaa

#29000
0aaaaa

#30000
1aaaaa

#31000
0aaaaa

#32000
1aaaaa

#33000
0aaaaa

#34000
1aaaaa

#35000
0aaaaa

#36000
1aaaaa

#37000
0aaaaa

#38000
1aaaaa

#39000
0aaaaa

#40000
1aaaaa

#41000
0aaaaa

#42000
1aaaaa

#43000
0aaaaa

#44000
1aaaaa

#45000
0aaaaa

#46000
1aaaaa

#47000
0aaaaa

#48000
1aaaaa

#49000
0aaaaa

#50000
1aaaaa

#51000
0aaaaa

#52000
1aaaaa

#53000
0aaaaa

#54000
1aaaaa

#55000
0aaaaa

#56000
1aaaaa

#57000
0aaaaa

#58000
1aaaaa

#59000
0aaaaa

#60000
1aaaaa

#61000
0aaaaa

#62000
1aaaaa

#63000
0aaaaa

#64000
1aaaaa

#65000
0aaaaa

#66000
1aaaaa

#67000
0aaaaa

#68000
1aaaaa

#69000
0aaaaa

#70000
1aaaaa

#71000
0aaaaa

#72000
1aaaaa

#73000
0aaaaa

#74000
1aaaaa

#75000
0aaaaa

#76000
1aaaaa

#77000
0aaaaa

#78000
1aaaaa

#79000
0aaaaa

#80000
1aaaaa

#81000
0aaaaa

#82000
1aaaaa

#83000
0aaaaa

#84000
1aaaaa

#85000
0aaaaa

#86000
1aaaaa

#87000
0aaaaa

#88000
1aaaaa

#89000
0aaaaa

#90000
1aaaaa

#91000
0aaaaa

#92000
1aaaaa

#93000
0aaaaa

#94000
1aaaaa

#95000
0aaaaa

#96000
1aaaaa

#97000
0aaaaa

#98000
1aaaaa

#99000
0aaaaa

#100000
1aaaaa
0aaaab
1aaaac
b101010 aaaad
1aaaaf
0aaaag

#101000
0aaaaa

#102000
1aaaaa

#103000
0aaaaa

#104000
1aaaaa
0aaaac
1aaaag
b10101010 aaaal

#105000
0aaaaa

#106000
1aaaaa

#107000
0aaaaa

#108000
1aaaaa
0aaaag
1aaaap
0aaaat
0aaaav

#109000
0aaaaa

#110000
1aaaaa
0aaaaf

#111000
0aaaaa

#112000
1aaaaa
1aaaag
b111 aaaaj

#113000
0aaaaa

#114000
1aaaaa

#115000
0aaaaa

#116000
1aaaaa
0aaaag
1aaaah
0aaaas
0aaaau

#117000
0aaaaa

#118000
1aaaaa

#119000
0aaaaa

#120000
1aaaaa
1aaaag
b110 aaaaj
b0XXXXXXX aaaar
1aaaas
1aaaau

#121000
0aaaaa

#122000
1aaaaa

#123000
0aaaaa

#124000
1aaaaa
0aaaag
0aaaas
1aaaat
0aaaau
1aaaav

#125000
0aaaaa

#126000
1aaaaa

#127000
0aaaaa

#128000
1aaaaa
1aaaag
b101 aaaaj
b1XXXXXX aaaar
1aaaas
1aaaau

#129000
0aaaaa

#130000
1aaaaa

#131000
0aaaaa

#132000
1aaaaa
0aaaag
0aaaas
0aaaat
0aaaau
0aaaav

#133000
0aaaaa

#134000
1aaaaa

#135000
0aaaaa

#136000
1aaaaa
1aaaag
b100 aaaaj
b10XXXXX aaaar
1aaaas
1aaaau

#137000
0aaaaa

#138000
1aaaaa

#139000
0aaaaa

#140000
1aaaaa
0aaaag
0aaaas
1aaaat
0aaaau
1aaaav

#141000
0aaaaa

#142000
1aaaaa

#143000
0aaaaa

#144000
1aaaaa
1aaaag
b11 aaaaj
b101XXXX aaaar
1aaaas
1aaaau

#145000
0aaaaa

#146000
1aaaaa

#147000
0aaaaa

#148000
1aaaaa
0aaaag
0aaaas
0aaaat
0aaaau
0aaaav

#149000
0aaaaa

#150000
1aaaaa

#151000
0aaaaa

#152000
1aaaaa
1aaaag
b10 aaaaj
b1010XXX aaaar
1aaaas
1aaaau

#153000
0aaaaa

#154000
1aaaaa

#155000
0aaaaa

#156000
1aaaaa
0aaaag
0aaaas
1aaaat
0aaaau
1aaaav

#157000
0aaaaa

#158000
1aaaaa

#159000
0aaaaa

#160000
1aaaaa
1aaaag
b1 aaaaj
b10101XX aaaar
1aaaas
1aaaau

#161000
0aaaaa

#162000
1aaaaa

#163000
0aaaaa

#164000
1aaaaa
0aaaag
0aaaas
0aaaat
0aaaau
0aaaav

#165000
0aaaaa

#166000
1aaaaa

#167000
0aaaaa

#168000
1aaaaa
1aaaag
b0 aaaaj
b101010X aaaar
1aaaas
1aaaau

#169000
0aaaaa

#170000
1aaaaa

#171000
0aaaaa

#172000
1aaaaa
0aaaag
0aaaas
0aaaau

#173000
0aaaaa

#174000
1aaaaa

#175000
0aaaaa

#176000
1aaaaa
1aaaag
b1010100 aaaar
1aaaas
1aaaau

#177000
0aaaaa

#178000
1aaaaa

#179000
0aaaaa

#180000
1aaaaa
0aaaag
0aaaak
1aaaaq
0aaaas
0aaaau

#181000
0aaaaa

#182000
1aaaaa

#183000
0aaaaa

#184000
1aaaaa
1aaaag
b111 aaaaj
1aaaas
1aaaau

#185000
0aaaaa

#186000
1aaaaa

#187000
0aaaaa

#188000
1aaaaa
0aaaag
1aaaak
0aaaaq
0aaaas
1aaaat
0aaaau
1aaaav

#189000
0aaaaa

#190000
1aaaaa

#191000
0aaaaa

#192000
1aaaaa
1aaaag
b110 aaaaj
b1XXXXXXX aaaan
1aaaas
1aaaau

#193000
0aaaaa

#194000
1aaaaa

#195000
0aaaaa

#196000
1aaaaa
0aaaag
0aaaas
0aaaat
0aaaau
0aaaav

#197000
0aaaaa

#198000
1aaaaa

#199000
0aaaaa

#200000
1aaaaa
1aaaag
b101 aaaaj
b10XXXXXX aaaan
1aaaas
1aaaau

#201000
0aaaaa

#202000
1aaaaa

#203000
0aaaaa

#204000
1aaaaa
0aaaag
0aaaas
1aaaat
0aaaau
1aaaav

#205000
0aaaaa

#206000
1aaaaa

#207000
0aaaaa

#208000
1aaaaa
1aaaag
b100 aaaaj
b101XXXXX aaaan
1aaaas
1aaaau

#209000
0aaaaa

#210000
1aaaaa

#211000
0aaaaa

#212000
1aaaaa
0aaaag
0aaaas
0aaaat
0aaaau
0aaaav

#213000
0aaaaa

#214000
1aaaaa

#215000
0aaaaa

#216000
1aaaaa
1aaaag
b11 aaaaj
b1010XXXX aaaan
1aaaas
1aaaau

#217000
0aaaaa

#218000
1aaaaa

#219000
0aaaaa

#220000
1aaaaa
0aaaag
0aaaas
1aaaat
0aaaau
1aaaav

#221000
0aaaaa

#222000
1aaaaa

#223000
0aaaaa

#224000
1aaaaa
1aaaag
b10 aaaaj
b10101XXX aaaan
1aaaas
1aaaau

#225000
0aaaaa

#226000
1aaaaa

#227000
0aaaaa

#228000
1aaaaa
0aaaag
0aaaas
0aaaat
0aaaau
0aaaav

#229000
0aaaaa

#230000
1aaaaa

#231000
0aaaaa

#232000
1aaaaa
1aaaag
b1 aaaaj
b101010XX aaaan
1aaaas
1aaaau

#233000
0aaaaa

#234000
1aaaaa

#235000
0aaaaa

#236000
1aaaaa
0aaaag
0aaaas
1aaaat
0aaaau
1aaaav

#237000
0aaaaa

#238000
1aaaaa

#239000
0aaaaa

#240000
1aaaaa
1aaaag
b0 aaaaj
b1010101X aaaan
1aaaas
1aaaau

#241000
0aaaaa

#242000
1aaaaa

#243000
0aaaaa

#244000
1aaaaa
0aaaag
0aaaas
0aaaat
0aaaau
0aaaav

#245000
0aaaaa

#246000
1aaaaa

#247000
0aaaaa

#248000
1aaaaa
1aaaag
b10101010 aaaan
1aaaas
1aaaau

#249000
0aaaaa

#250000
1aaaaa

#251000
0aaaaa

#252000
1aaaaa
0aaaag
1aaaaq
0aaaas
0aaaau

#253000
0aaaaa

#254000
1aaaaa

#255000
0aaaaa

#256000
1aaaaa
1aaaag
1aaaas
1aaaau

#257000
0aaaaa

#258000
1aaaaa

#259000
0aaaaa

#260000
1aaaaa
0aaaag
0aaaah
0aaaap
0aaaaq
1aaaat
1aaaav

#261000
0aaaaa

#262000
1aaaaa

#263000
0aaaaa

#264000
1aaaaa
1aaaac
1aaaag

